[gd_scene load_steps=2 format=2]

[ext_resource path="res://Crafts/ItemHarvest.gd" type="Script" id=1]

[node name="ItemHarvest" type="StaticBody2D"]
position = Vector2( -5, 0 )
collision_layer = 0
collision_mask = 0
script = ExtResource( 1 )

[node name="CollisionShape2D" type="CollisionShape2D" parent="."]
